// Jest Snapshot v1, https://goo.gl/fbAQLP

exports[`<Logo/> should match snapshot 1`] = `
<div
  className="logo"
>
  <div
    className="logo-image-container"
  >
    <div
      className="mobile-logo-image"
      role="logo"
    />
  </div>
</div>
`;
