// Jest Snapshot v1, https://goo.gl/fbAQLP

exports[`<Form/> should match snapshot 1`] = `
<div
  className="register-form"
>
  <div
    className="form-container"
  >
    <section
      id="description-section"
    >
      <div
        id="text"
      >
        Enter your information below for exclusive offers, promotions and savings
      </div>
    </section>
    <section
      id="form-section"
    >
      <Form
        id="reg-form"
        role="form"
        tag="form"
      >
        <div
          id="input-section"
        >
          <FormGroup
            tag="div"
          >
            <Label
              className=""
              id="required-field"
              name="required-field"
              tag="label"
              widths={
                Array [
                  "xs",
                  "sm",
                  "md",
                  "lg",
                  "xl",
                ]
              }
            >
              * Fields required
            </Label>
          </FormGroup>
          <FormGroup
            tag="div"
          >
            <Label
              className="required"
              for="firstname"
              name="firstname"
              tag="label"
              widths={
                Array [
                  "xs",
                  "sm",
                  "md",
                  "lg",
                  "xl",
                ]
              }
            >
              First Name
            </Label>
            <Input
              id="firstname"
              name="firstname"
              onChange={[Function]}
              placeholder=""
              type="text"
              value=""
            />
          </FormGroup>
          <FormGroup
            tag="div"
          >
            <Label
              for="lastname"
              name="lastname"
              tag="label"
              widths={
                Array [
                  "xs",
                  "sm",
                  "md",
                  "lg",
                  "xl",
                ]
              }
            >
              Last Name
            </Label>
            <Input
              id="lastname"
              name="lastname"
              onChange={[Function]}
              placeholder=""
              type="text"
              value=""
            />
          </FormGroup>
          <FormGroup
            tag="div"
          >
            <Label
              className="required"
              for="emailaddress"
              name="emailaddress"
              tag="label"
              widths={
                Array [
                  "xs",
                  "sm",
                  "md",
                  "lg",
                  "xl",
                ]
              }
            >
              Email Address
            </Label>
            <Input
              id="emailaddress"
              name="emailaddress"
              onChange={[Function]}
              placeholder=""
              type="email"
              value=""
            />
          </FormGroup>
          <FormGroup
            tag="div"
          >
            <Label
              className="required"
              for="password"
              name="password"
              tag="label"
              widths={
                Array [
                  "xs",
                  "sm",
                  "md",
                  "lg",
                  "xl",
                ]
              }
            >
              Choose Password
            </Label>
            <Input
              id="password"
              name="password"
              onChange={[Function]}
              placeholder=""
              type="password"
              value=""
            />
          </FormGroup>
          <FormGroup
            tag="div"
          >
            <Label
              className="required"
              for="passwordconfirm"
              name="passwordconfirm"
              tag="label"
              widths={
                Array [
                  "xs",
                  "sm",
                  "md",
                  "lg",
                  "xl",
                ]
              }
            >
              Confirm Password
            </Label>
            <Input
              id="passwordconfirm"
              name="passwordconfirm"
              onChange={[Function]}
              placeholder=""
              type="password"
              value=""
            />
          </FormGroup>
          <FormGroup
            tag="div"
          >
            <div
              id="birthdate-header-section"
            >
              <Label
                className="required "
                for="birthdate"
                id="birthdate"
                name="birthdate"
                tag="label"
                widths={
                  Array [
                    "xs",
                    "sm",
                    "md",
                    "lg",
                    "xl",
                  ]
                }
              >
                Birthdate
              </Label>
              <div>
                <div
                  className="question-mark-icon"
                  id="birthday-question"
                  onClick={[Function]}
                >
                  <div
                    id="mobile-birthday-question-mark"
                  />
                </div>
                <Component
                  target="birthday-question"
                  toggle={[Function]}
                />
              </div>
            </div>
            <InputGroup
              id="birthdate-input-section"
              tag="div"
            >
              <InputGroup
                className="birthdate"
                tag="div"
              >
                <_class
                  handleSelected={[Function]}
                  hasError={false}
                  items={
                    Array [
                      "January",
                      "February",
                      "March",
                      "April",
                      "May",
                      "June",
                      "July",
                      "August",
                      "September",
                      "October",
                      "November",
                      "December",
                    ]
                  }
                  name="month"
                  required={true}
                  selected=""
                />
              </InputGroup>
              <InputGroup
                className="birthdate"
                tag="div"
              >
                <_class
                  handleSelected={[Function]}
                  hasError={false}
                  items={
                    Array [
                      1,
                      2,
                      3,
                      4,
                      5,
                      6,
                      7,
                      8,
                      9,
                      10,
                      11,
                      12,
                      13,
                      14,
                      15,
                      16,
                      17,
                      18,
                      19,
                      20,
                      21,
                      22,
                      23,
                      24,
                      25,
                      26,
                      27,
                      28,
                      29,
                      30,
                      31,
                    ]
                  }
                  name="day"
                  required={true}
                  selected=""
                />
              </InputGroup>
              <InputGroup
                className="birthdate"
                tag="div"
              >
                <_class
                  handleSelected={[Function]}
                  hasError={false}
                  items={
                    Array [
                      2018,
                      2017,
                      2016,
                      2015,
                      2014,
                      2013,
                      2012,
                      2011,
                      2010,
                      2009,
                      2008,
                      2007,
                      2006,
                      2005,
                      2004,
                      2003,
                      2002,
                      2001,
                      2000,
                      1999,
                      1998,
                      1997,
                      1996,
                      1995,
                      1994,
                      1993,
                      1992,
                      1991,
                      1990,
                      1989,
                      1988,
                      1987,
                      1986,
                      1985,
                      1984,
                      1983,
                      1982,
                      1981,
                      1980,
                      1979,
                      1978,
                      1977,
                      1976,
                      1975,
                      1974,
                      1973,
                      1972,
                      1971,
                      1970,
                      1969,
                      1968,
                      1967,
                      1966,
                      1965,
                      1964,
                      1963,
                      1962,
                      1961,
                      1960,
                      1959,
                      1958,
                      1957,
                      1956,
                      1955,
                      1954,
                      1953,
                      1952,
                      1951,
                      1950,
                      1949,
                      1948,
                      1947,
                      1946,
                      1945,
                      1944,
                      1943,
                      1942,
                      1941,
                      1940,
                      1939,
                      1938,
                      1937,
                      1936,
                      1935,
                      1934,
                      1933,
                      1932,
                      1931,
                      1930,
                      1929,
                      1928,
                      1927,
                      1926,
                      1925,
                      1924,
                      1923,
                      1922,
                      1921,
                      1920,
                      1919,
                      1918,
                      1917,
                      1916,
                      1915,
                      1914,
                      1913,
                      1912,
                      1911,
                      1910,
                      1909,
                      1908,
                    ]
                  }
                  name="year"
                  required={true}
                  selected=""
                />
              </InputGroup>
            </InputGroup>
          </FormGroup>
          <FormGroup
            tag="div"
          >
            <div
              id="phone-header-section"
            >
              <Label
                className=""
                for="phonenumber"
                name="phonenumber"
                tag="label"
                widths={
                  Array [
                    "xs",
                    "sm",
                    "md",
                    "lg",
                    "xl",
                  ]
                }
              >
                Phone Number
              </Label>
              <Label
                id="phone-description"
                tag="label"
                widths={
                  Array [
                    "xs",
                    "sm",
                    "md",
                    "lg",
                    "xl",
                  ]
                }
              >
                Lorem ipsum dolor.
              </Label>
            </div>
            <Input
              className=""
              id="phonenumber"
              name="phonenumber"
              onChange={[Function]}
              placeholder="(xxx) xxx-xxxx"
              type="text"
              value=""
            />
          </FormGroup>
          <FormGroup
            tag="div"
          >
            <Label
              className="required"
              for="country"
              name="country"
              tag="label"
              widths={
                Array [
                  "xs",
                  "sm",
                  "md",
                  "lg",
                  "xl",
                ]
              }
            >
              Country
            </Label>
            <InputGroup
              id="country-input-group"
              tag="div"
            >
              <Label
                id="icon-usa"
                tag="label"
                widths={
                  Array [
                    "xs",
                    "sm",
                    "md",
                    "lg",
                    "xl",
                  ]
                }
              >
                <Input
                  checked={false}
                  name="country"
                  onChange={[Function]}
                  type="radio"
                  value="Usa"
                />
                 
                <div
                  alt="Usa"
                  id="country-mobile-usa"
                  role="image"
                />
              </Label>
              <Label
                id="icon-canada"
                tag="label"
                widths={
                  Array [
                    "xs",
                    "sm",
                    "md",
                    "lg",
                    "xl",
                  ]
                }
              >
                <Input
                  checked={false}
                  className="country-radio"
                  name="country"
                  onChange={[Function]}
                  type="radio"
                  value="Canada"
                />
                 
                <div
                  alt="Canada"
                  id="country-mobile-canada"
                  role="image"
                />
              </Label>
            </InputGroup>
          </FormGroup>
          <FormGroup
            tag="div"
          >
            <Label
              className="required"
              for="zipcode"
              name="zipcode"
              tag="label"
              widths={
                Array [
                  "xs",
                  "sm",
                  "md",
                  "lg",
                  "xl",
                ]
              }
            >
              Zip/Postal Code
            </Label>
            <Input
              className=""
              id="zipcode"
              name="zipcode"
              onChange={[Function]}
              placeholder=""
              type="text"
            />
          </FormGroup>
        </div>
        <section
          id="agreement-section"
        >
          <FormGroup
            check={true}
            tag="div"
          >
            <Label
              check={true}
              className="required"
              name="terms"
              tag="label"
              widths={
                Array [
                  "xs",
                  "sm",
                  "md",
                  "lg",
                  "xl",
                ]
              }
            >
              <Input
                checked={false}
                className=""
                id="terms"
                name="terms"
                onChange={[Function]}
                type="checkbox"
              />
               
                
              <span>
                Yes, I accept the 
                <span
                  className="underline"
                >
                  Terms & condition
                </span>
                 and 
                <span
                  className="underline"
                >
                  Privacy Policy
                </span>
              </span>
            </Label>
          </FormGroup>
          <FormGroup
            check={true}
            style={
              Object {
                "marginTop": "12px",
              }
            }
            tag="div"
          >
            <Label
              check={true}
              tag="label"
              widths={
                Array [
                  "xs",
                  "sm",
                  "md",
                  "lg",
                  "xl",
                ]
              }
            >
              <Input
                checked={false}
                id="offer"
                name="offer"
                onChange={[Function]}
                type="checkbox"
              />
               
                
              <span>
                Yes, I'd like to receive news and special offers
              </span>
            </Label>
          </FormGroup>
        </section>
        <div
          id="submit-button"
        >
          <Button
            className="btn-block"
            color="secondary"
            onClick={[Function]}
            tag="button"
          >
            Register
          </Button>
        </div>
      </Form>
    </section>
  </div>
</div>
`;
